<?xml version="1.0" encoding="utf-8"?>
<svg xmlns="http://www.w3.org/2000/svg"
	xmlns:xlink="http://www.w3.org/1999/xlink"
	width="15px" height="13px" viewBox="0 0 15 13">
<filter filterUnits="objectBoundingBox" x="0.00" y="-8.33" width="100.00" height="108.33" id="filter0">
<feGaussianBlur in="SourceAlpha" stdDeviation="0.00" result="dsBlurOut1"/>
<feFlood flood-color="rgb(0,0,0)" flood-opacity="0.17" result="dsFloodOut1"/>
<feComposite in="dsFloodOut1" in2="dsBlurOut1" operator="in" result="dsShadow1"/>
<feOffset in="dsShadow1" dx="0.00" dy="-1.00" result="dsOffset1"/>
<feComposite in="dsOffset1" in2="SourceAlpha" operator="out" result="dropShadow1"/>
<feBlend in="dropShadow1" in2="SourceGraphic" mode="normal" result="sourceGraphic"/>
</filter>
<path fillRule="evenodd" d="M 14.73 2.66C 14.73 2.66 13.41 1.28 13.41 1.28 13.23 1.09 13.01 1 12.75 1 12.5 1 12.28 1.09 12.1 1.28 12.1 1.28 5.75 7.92 5.75 7.92 5.75 7.92 2.9 4.94 2.9 4.94 2.72 4.75 2.5 4.66 2.25 4.66 1.99 4.66 1.77 4.75 1.59 4.94 1.59 4.94 0.27 6.31 0.27 6.31 0.09 6.5 0 6.73 0 7 0 7.27 0.09 7.5 0.27 7.69 0.27 7.69 3.77 11.34 3.77 11.34 3.77 11.34 5.09 12.72 5.09 12.72 5.27 12.91 5.49 13 5.75 13 6.01 13 6.23 12.91 6.41 12.72 6.41 12.72 7.72 11.34 7.72 11.34 7.72 11.34 14.73 4.03 14.73 4.03 14.91 3.84 15 3.61 15 3.34 15 3.07 14.91 2.85 14.73 2.66Z" fill="rgb(255,255,255)" filter="url(#filter0)"/></svg>